The chores eval — chores_dataset • choreseval
…
source
Character. URL or source of the problem, usually as a link to
a commit on GitHub. NAs indicate that
the problem was written originally for this eval.

    See also

    chores_task() to situate this dataset in the chores eval.

    Examples

chores_dataset
#> # A tibble: 34 × 5
#>    id                      input                          target source parsable
#>    <chr>                   <chr>                          <chr>  <chr>  <lgl>   
#>  1 ad-hoc-collapse         "      p_names <- pset$id[is.… "    … https… TRUE    
#>  2 collapse-pluralization  "    rlang::abort(\n       gl… "cli:… https… TRUE    
#>  3 dbplyr-argument-inline  "abort(\"DuckDB does not supp… "cli_… https… TRUE    
#>  4 dbplyr-code-inline      "abort(\"Can't determine name… "cli:… https… TRUE    
#>  5 dbplyr-preserve-call    "abort('`conflict = \"error\"… "cli_… https… TRUE    
#>  6 duckplyr-capture-output "    abort(\n       c(\n     … " ```… https… TRUE    
#>  7 fn-help                 "    rlang::abort(paste0(\n  … "    … https… TRUE    
#>  8 fn-paste0               "rlang::abort(paste0(\"Intern… "cli:… https… TRUE    
#>  9 inline-glue             "    rlang::abort(\n       gl… "    … https… TRUE    
#> 10 inline-variable         "    msg <- paste0(\"Argument… "cli:… https… TRUE    
#> # ℹ 24 more rows
…
